project
…
describe(cancer_data)

## Warning: `cols` is now required when using unnest().
## Please use `cols = c(statistic)`

## # A tibble: 32 x 26
##    variable     n    na    mean      sd se_mean     IQR skewness kurtosis
##    <chr>    <int> <int>   <dbl>   <dbl>   <dbl>   <dbl>    <dbl>    <dbl>
##  1 id         569     0 3.04e+7 1.25e+8 5.24e+6 7.94e+6    6.47    42.2  
##  2 diagnos~   569     0 3.73e-1 4.84e-1 2.03e-2 1.00e+0    0.528   -1.73 
##  3 radius_~   569     0 1.41e+1 3.52e+0 1.48e-1 4.08e+0    0.942    0.846
##  4 texture~   569     0 1.93e+1 4.30e+0 1.80e-1 5.63e+0    0.650    0.758
##  5 perimet~   569     0 9.20e+1 2.43e+1 1.02e+0 2.89e+1    0.991    0.972
##  6 area_me~   569     0 6.55e+2 3.52e+2 1.48e+1 3.62e+2    1.65     3.65 
##  7 smoothn~   569     0 9.64e-2 1.41e-2 5.90e-4 1.89e-2    0.456    0.856
##  8 compact~   569     0 1.04e-1 5.28e-2 2.21e-3 6.55e-2    1.19     1.65 
##  9 concavi~   569     0 8.88e-2 7.97e-2 3.34e-3 1.01e-1    1.40     2.00 
## 10 concave~   569     0 4.89e-2 3.88e-2 1.63e-3 5.37e-2    1.17     1.07 
## # ... with 22 more rows, and 17 more variables: p00 <dbl>, p01 <dbl>,
## #   p05 <dbl>, p10 <dbl>, p20 <dbl>, p25 <dbl>, p30 <dbl>, p40 <dbl>,
## #   p50 <dbl>, p60 <dbl>, p70 <dbl>, p75 <dbl>, p80 <dbl>, p90 <dbl>,
## #   p95 <dbl>, p99 <dbl>, p100 <dbl>
…
